{
  "UIAccount.label": "Tài Khoản",
  "UIAccount.field.type": "Type",
  "UIAccount.field.type.user": "Cá nhân",
  "UIAccount.field.type.organization": "Doanh nghiệp",
  "UIAccount.field.loginId": "Tên đăng nhập",
  "UIAccount.field.password": "Mật khẩu",
  "UIAccount.field.email": "Email",
  "UIAccount.action.save": "Lưu",
  "UIAccount.action.cancel": "Thoát",
  
  "UIAccountList.label": "Tài khoản",
  "UIAccountList.action.onNew": "Thêm mới",
  "UIAccountList.action.onFullNew": "Thêm mới (Full)",
  "UIAccountList.action.onRefresh": "Refresh",
  "UIAccountList.action.onReport": "Báo cáo",
  "UIAccountList.field.loginId": "Tài khoản",
  "UIAccountList.field.type": "Loại tài khoản",
  "UIAccountList.field.email": "Email",
  
  "UIUserBasic.label": "Thông tin cá nhân",
  "UIUserBasic.field.firstName": "Tên",
  "UIUserBasic.field.lastName": "Họ",
  "UIUserBasic.field.gender": "Giới tính",
  "UIUserBasic.field.birthday": "Ngày sinh",
  "UIUserBasic.field.avatar": "Ảnh đại diện",
  "UIUserBasic.field.weight": "Cân nặng(Kg)",
  "UIUserBasic.field.height": "Chiều cao(Cm)",
  "UIUserBasic.field.personalId": "Chứng minh thư",
  "UIUserBasic.field.maritalStatus": "Tình trạng hôn nhân",
  "UIUserBasic.field.hobby": "Sở thích",
  
  "UIUserEducation.label": "Học vấn",
  "UIUserEducation.action.onNew": "Thêm mới",
  "UIUserEducation.field.schoolOrInstitute": "Tên trường",
  "UIUserEducation.field.from": "Bắt đầu",
  "UIUserEducation.field.to": "Kết thúc",
  "UIUserEducation.field.major": "Chuyên ngành",
  "UIUserEducation.field.certificate": "Hệ đào tạo",
  "UIUserEducation.field.language": "Ngoại ngữ",
  "UIUserEducation.action.delete": "Xóa",
  "UIUserEducation.action.edit": "Sửa",
  
  "UIUserWork.label": "Kinh nghiệm làm việc",
  "UIUserWork.action.onNew": "Thêm mới",
  "UIUserWork.field.organization": "Công ty",
  "UIUserWork.field.from": "Bắt đầu",
  "UIUserWork.field.to": "Kết thúc",
  "UIUserWork.field.position": "Vị trí làm việc",
  "UIUserWork.field.description": "Mô tả",
  "UIUserWork.action.delete": "Xóa",
  "UIUserWork.action.edit": "Sửa",
  
  "UIUserRelationship.label": "Quan hệ gia đình",
  "UIUserRelationship.action.onNew": "Thêm mới",
  "UIUserRelationship.field.relation": "Quan hệ",
  "UIUserRelationship.field.gender": "Giới tính",
  "UIUserRelationship.field.firstName": "Tên",
  "UIUserRelationship.field.lastName": "Họ",
  "UIUserRelationship.field.birthday": "Ngày sinh",
  "UIUserRelationship.field.occupation": "Nghề nghiệp",
  "UIUserRelationship.action.delete": "Xóa",
  "UIUserRelationship.action.edit": "Sửa",
  
  "UIContact.label": "Địa chỉ liên lạc",
  "UIContact.action.onNew": "Thêm mới",
  "UIContact.field.addressNumber": "Số nhà",
  "UIContact.field.street": "Đường",
  "UIContact.field.country": "Quốc gia",
  "UIContact.field.city": "Thành phố",
  "UIContact.field.phone": "Điện thoại CĐ",
  "UIContact.field.mobile": "Điện thoại DĐ",
  "UIContact.field.fax": "Fax",
  "UIContact.field.email": "Email",
  "UIContact.field.website": "Website",
  "UIContact.action.delete": "Xóa",
  "UIContact.action.edit": "Sửa",
  
  "UIOrganizationBasic.label": "Thông tin doanh nghiệp",
  "UIOrganizationBasic.field.name": "Tên công ty",
  "UIOrganizationBasic.field.fullName": "Tên đầy đủ",
  "UIOrganizationBasic.field.organizationType": "Loại hình doanh nghiệp",
  "UIOrganizationBasic.field.manager": "Quản lý",
  "UIOrganizationBasic.field.manager.false": "Không",
  "UIOrganizationBasic.field.manager.true": "Có",
  "UIOrganizationBasic.field.slogan": "Slogan",
  "UIOrganizationBasic.field.logoURL": "Logo",
  "UIOrganizationBasic.field.foundedDate": "Ngày thành lập",
  "UIOrganizationBasic.field.terminatedDate": "Ngày dừng hoạt động",
  "UIOrganizationBasic.field.registrationCode": "Mã đăng ký",
  "UIOrganizationBasic.field.representative": "Đại diện doanh nghiệp",
  "UIOrganizationBasic.field.description": "Mô tả",
  
  "UIBusinessRegistration.label": "Đăng ký kinh doanh",
  "UIBusinessRegistration.action.onNew": "Tạo mới",
  "UIBusinessRegistration.field.fullName.vn": "Tên tiếng Việt",
  "UIBusinessRegistration.field.fullName.en": "Tên tiếng Anh",
  "UIBusinessRegistration.field.registrationCode": "Mã đăng ký",
  "UIBusinessRegistration.field.taxRegistrationCode": "Mã số thuế",
  "UIBusinessRegistration.field.representative": "Đại diện doanh nghiệp",
  "UIBusinessRegistration.field.charterCapital": "Vốn điều lệ",
  "UIBusinessRegistration.field.legalCapital": "Vốn pháp lý",
  "UIBusinessRegistration.field.domain": "Lĩnh vực kinh doanh",
  "UIBusinessRegistration.action.delete": "Xóa",
  "UIBusinessRegistration.action.edit": "Sửa",
  
  "UIAccountDetail.label": "Thông tin thài khoản",
  "UIAccountDetail.action.save": "Lưu",
  "UIAccountDetail.action.back": "Quay lại",
  
  "UIGroup.label": "Nhóm",
  "UIGroup.field.path": "Path",
  "UIGroup.field.name": "Tên",
  "UIGroup.field.owner": "Thuộc doanh nghiệp",
  "UIGroup.field.label": "Nhãn hiển thị",
  "UIGroup.field.description": "Mô tả",
  "UIGroup.action.save": "Lưu",
  "UIGroup.action.cancel": "Thoát"
  }
